{
  "use_default_id": true,
  "use_default_date": true,
  "name": "branch",
  "type": "create",
  "createRowSeed": ".createMany(4)",
  "field": [
    {
      "name": "area_id",
      "type": "integer",
      "formType": "text",
      "label": "Area",
      "attribute": "unsigned",
      "validation": "required",
      "relations": {
        "relationName": "belongsTo",
        "references": "id",
        "inTable": "areas",
        "model": "Area",
        "onDelete": "CASCADE",
        "onUpdate": "NO ACTION",
        "formKey": "[\"id\", \"area_name\"]"
      }
    },
    {
      "name": "branch_name",
      "formType": "text",
      "label": "ASM Area",
      "validation": "required",
      "faker": "faker.pickone(['JABODETABEK 01','JABODETABEK 02','JAWA BARAT 01','JAWA BARAT 02'])",
      "type": "string",
      "length": 64,
      "nullable": false
    },
    {
      "name": "branch_status",
      "faker": "faker.pickone([1])",
      "type": "boolean",
      "formType": "radio",
      "label": "Area Status",
      "nullable": false,
      "default": 1,
      "enumData": [
        {
          "label": "Active",
          "value": 1
        },
        {
          "label": "Inactive",
          "value": 0
        }
      ]
    }
  ]
}
