{
  "use_default_id": true,
  "use_default_date": true,
  "name": "user",
  "type": "create",
  "createRowSeed": ".createMany(10)",
  "field": [
    {
      "name": "username",
      "formType": "text",
      "label": "Username",
      "validation": "required",
      "faker": "faker.first()",
      "type": "string",
      "length": 64,
      "nullable": false
    },
    {
      "name": "password",
      "formType": "password",
      "label": "Password",
      "faker": "'admin'",
      "type": "string",
      "length": 64,
      "nullable": false,
      "validation": "required"
    },
    {
      "name": "email",
      "formType": "email",
      "label": "Email",
      "validation": "required",
      "faker": "faker.email()",
      "type": "string",
      "length": 64,
      "nullable": false
    },
    {
      "name": "avatar",
      "formType": "file",
      "label": "Avatar",
      "faker": "faker.avatar()",
      "type": "string",
      "nullable": true
    },
    {
      "name": "user_status",
      "faker": "faker.bool({ likelihood: 80 })",
      "type": "boolean",
      "formType": "radio",
      "label": "User Status",
      "nullable": false,
      "default": 1,
      "validation": "required",
      "enumData": [{ "label": "inactive", "value": 0},{ "label": "active", "value": 1}]
    },
    {
      "name": "user_role",
      "faker": "faker.pickone([0,1,2,3])",
      "type": "enu",
      "formType": "radio",
      "label": "User Role",
      "nullable": false,
      "default": 0,
      "enumValue": "0,1,2",
      "enumLabel": "'member','admin','superuser'",
      "enumData": [
        { "label": "member", "value": 0 },
        { "label": "admin", "value": 1 },
        { "label": "superuser", "value": 2 }
      ],
      "comment": "'0 =>member, 1=>admin, 2=>superuser'",
      "validation": "required"
    },
    {
      "name": "parent",
      "faker": "",
      "type": "integer",
      "formType": "number",
      "inputMsg": "",
      "label": "parent",
      "nullable": true,
      "validation": ""
    },
    {
      "name": "code",
      "formType": "text",
      "label": "Code",
      "faker": "faker.bool({ likelihood: 80 })",
      "type": "string",
      "length": 64,
      "nullable": true
    },
    {
      "name": "gender",
      "faker": "faker.pickone([0,1])",
      "type": "enu",
      "formType": "radio",
      "label": "Status",
      "nullable": false,
      "default": 0,
      "enumValue": "0,1",
      "enumLabel": "'male','female'",
      "enumData": [
        { "label": "male", "value": 0 },
        { "label": "female", "value": 1 }
      ],
      "comment": "'0 => male, 1=> female'",
      "validation": "required"
    },
    {
      "name": "birthdate",
      "faker": "faker.date({ year: 2018 })",
      "type": "date",
      "formType": "date",
      "inputMsg": "format 2018-10-10",
      "label": "Birthdate",
      "nullable": true,
      "validation": "required|date"
    },
    {
      "name": "phone",
      "faker": "faker.pickone(['089641695266'])",
      "type": "integer",
      "formType": "text",
      "inputMsg": "6289642695266",
      "label": "Phone",
      "nullable": true,
      "validation": "required"
    },
    {
      "name": "bio",
      "faker": "faker.sentence()",
      "type": "text",
      "formType": "textarea",
      "label": "Bio",
      "nullable": true
    },
    {
      "name": "cover",
      "formType": "file",
      "label": "Cover",
      "faker": "faker.avatar()",
      "type": "string",
      "nullable": true
    },
    {
      "name": "country_id",
      "faker": "",
      "type": "integer",
      "formType": "text",
      "label": "Country",
      "nullable": true,
      "skip": true
    },
    {
      "name": "state_id",
      "faker": "",
      "type": "integer",
      "formType": "text",
      "label": "State",
      "nullable": true,
      "skip": true
    },
    {
      "name": "city_id",
      "faker": "",
      "type": "integer",
      "formType": "text",
      "label": "State",
      "nullable": true,
      "skip": true
    },
    {
      "name": "district_id",
      "faker": "",
      "type": "integer",
      "formType": "text",
      "label": "District",
      "nullable": true,
      "skip": true
    },
    {
      "name": "village_id",
      "faker": "",
      "type": "integer",
      "formType": "text",
      "label": "Village",
      "nullable": true,
      "skip": true
    },
    {
      "name": "location_detail",
      "faker": "faker.sentence()",
      "type": "text",
      "formType": "textarea",
      "label": "Location Detail",
      "nullable": true
    }
  ]
}
