{
  "use_default_id": true,
  "use_default_date": true,
  "name": "city",
  "type": "create",
  "createRowSeed": ".createMany(60)",
  "field": [
    {
      "name": "country_id",
      "type": "integer",
      "formType": "text",
      "label": "Country",
      "attribute": "unsigned",
      "validation": "required",
      "relations": {
        "loadDepend": ["state_id"],
        "relationName": "belongsTo",
        "references": "id",
        "inTable": "countries",
        "model": "Country",
        "onDelete": "CASCADE",
        "onUpdate": "NO ACTION",
        "formKey": "[\"id\", \"country_name\"]"
      }
    },
    {
      "name": "state_id",
      "type": "integer",
      "formType": "text",
      "label": "State",
      "attribute": "unsigned",
      "validation": "required",
      "relations": {
        "loadDepend": [],
        "relationName": "belongsTo",
        "references": "id",
        "inTable": "states",
        "model": "State",
        "onDelete": "CASCADE",
        "onUpdate": "NO ACTION",
        "formKey": "[\"id\", \"state_name\"]"
      }
    },
    {
      "name": "city_name",
      "formType": "text",
      "label": "City Name",
      "validation": "required",
      "faker": "faker.word()",
      "type": "string",
      "length": 80,
      "nullable": true
    },
    {
      "name": "city_status",
      "faker": "faker.bool({ likelihood: 80 })",
      "type": "boolean",
      "formType": "radio",
      "label": "Status",
      "nullable": false,
      "default": 0,
      "comment": "'0 =>not active, 1=>active'",
      "enumData": [{ "label": "inactive", "value": 0},{ "label": "active", "value": 1}]
    }
  ]
}
